module gitlab.com/dmlambea/vxtwitter-bot

go 1.22.1

require (
	github.com/go-telegram-bot-api/telegram-bot-api/v5 v5.5.1
	github.com/stretchr/testify v1.9.0
)

require (
	github.com/davecgh/go-spew v1.1.1 // indirect
	github.com/pmezard/go-difflib v1.0.0 // indirect
	gopkg.in/yaml.v3 v3.0.1 // indirect
)
